0.0 0
0.63596 536
0.63596 536
1.46092 1072
2.34636 1608
3.2318 2144
3.4908 2680
4.05824 3216
4.29424 3752
4.55324 4288
4.88468 4824
5.17968 5360
5.29768 5896
5.53368 6432
5.82868 6968
6.14668 7504
6.35968 8040
6.47768 8576
6.59568 9112
6.89068 9648
7.14968 10184
7.24468 10720
7.50368 11256
7.59868 11792
7.83468 12328
8.01168 12864
8.13176 13400
8.36776 13400
8.36776 6164
