0.63016 536
1.56328 0
1.56328 536
1.56328 1072
2.51628 0
2.51628 536
2.51628 1072
2.51628 1608
3.51228 536
3.51228 1072
3.51228 1608
3.51228 2144
3.77128 1608
3.77128 2144
3.77128 2680
4.54128 1608
4.54128 2144
4.54128 2680
4.54128 3216
4.80028 2680
4.80028 3216
4.80028 3752
4.93728 2680
4.93728 3216
4.93728 3752
4.93728 4288
5.56628 3216
5.56628 3752
5.56628 4288
5.56628 4824
5.82528 4288
5.82528 4824
5.82528 5360
5.94928 4288
5.94928 4824
5.94928 5360
5.94928 5896
6.20828 5360
6.20828 5896
6.20828 6432
6.45528 5360
6.45528 5896
6.45528 6432
6.45528 6968
6.85128 5896
6.85128 6432
6.85128 6968
6.85128 7504
7.11028 6968
7.11028 7504
7.11028 8040
7.35728 6968
7.35728 7504
7.35728 8040
7.35728 8576
7.68836 8040
7.68836 8576
7.74736 8040
7.74736 8576
7.80636 7504
7.80636 8040
8.19644 7504
8.25544 6968
8.58444 3216
8.58444 3752
8.64344 3216
8.64344 3752
8.70244 3216
8.70244 3752
8.98044 3216
8.98044 3752
9.09844 3216
9.09844 3752
9.42744 3216
9.42744 3752
9.48436 3216
9.48436 3752
9.59936 3216
9.59936 3752
9.65836 3216
9.65836 3752
9.71736 3216
9.71736 3752
10.0494 3216
10.0494 3752
10.1564 3216
10.1564 3752
10.4353 3216
10.4353 3752
10.9493 3216
10.9493 3752
11.2083 3216
11.2083 3752
11.4016 3216
11.4016 3752
11.8454 3216
11.8454 3752
11.909 3216
11.909 3752
12.1744 2144
12.1744 2680
12.297 2144
12.634 1608
12.7604 1072
12.824 536
12.824 1072
13.188 536
13.188 1072
13.7856 536
13.7856 1072
14.3683 536
14.3683 1072
14.8363 536
14.8363 1072
15.4608 536
15.4608 1072
15.4608 1608
15.9176 1072
15.9176 1608
16.5083 1072
16.5083 1608
16.7573 1072
16.7573 1608
16.7573 2144
16.9683 1608
16.9683 2144
17.5623 1608
17.5623 2144
17.7986 1072
17.7986 1608
17.7986 2144
18.2583 1608
18.2583 2144
18.7217 1608
18.7217 2144
18.7217 2680
18.8556 1608
18.8556 2144
18.8556 2680
19.4623 2144
19.4623 2680
19.7466 1608
19.7466 2144
19.7466 2680
20.2063 2144
20.2063 2680
20.5146 1608
20.5146 2144
20.5146 2680
20.5146 3216
20.8546 2144
20.8546 2680
20.8546 3216
21.3816 2144
21.3816 2680
21.3816 3216
21.6896 2144
21.6896 2680
21.6896 3216
22.1366 2144
22.1366 2680
22.1366 3216
22.3346 2144
22.3346 2680
22.3346 3216
22.8423 2680
22.8423 3216
22.8423 3752
23.0463 2680
23.0463 3216
23.0463 3752
23.2496 2680
23.2496 3216
23.2496 3752
23.7143 3216
23.7143 3752
23.8086 2680
23.8086 3216
23.8086 3752
24.1086 2680
24.1086 3216
24.1086 3752
24.4986 3216
24.4986 3752
24.6216 2680
24.6216 3216
24.6216 3752
24.8973 2680
24.8973 3216
24.8973 3752
24.8973 4288
25.2316 3216
25.2316 3752
25.2316 4288
25.5043 3216
25.5043 3752
25.5043 4288
25.7713 3752
25.7713 4288
25.8493 3216
25.8493 3752
25.8493 4288
26.1623 3216
26.1623 3752
26.1623 4288
26.5503 3216
26.5503 3752
26.5503 4288
26.8093 3752
26.8093 4288
26.8926 3216
26.8926 3752
26.8926 4288
26.8926 4824
27.2163 3752
27.2163 4288
27.2163 4824
27.4786 4288
27.4786 4824
27.6686 3752
27.6686 4288
27.6686 4824
27.9333 3752
27.9333 4288
27.9333 4824
28.1988 4288
28.1988 4824
28.3803 3752
28.3803 4288
28.3803 4824
28.7173 3752
28.7173 4288
28.7173 4824
28.9763 4288
28.9763 4824
29.1643 3752
29.1643 4288
29.1643 4824
29.4933 3752
29.4933 4288
29.4933 4824
29.4933 5360
29.7523 4824
29.7523 5360
29.8813 4288
29.8813 4824
29.8813 5360
30.1403 4824
30.1403 5360
30.2773 4288
30.2773 4824
30.2773 5360
30.6653 4288
30.6653 4824
30.6653 5360
30.9276 4824
30.9276 5360
31.1123 4288
31.1123 4824
31.1123 5360
31.3844 4824
31.3844 5360
31.4434 4824
31.4434 5360
31.5024 4288
31.5024 4824
31.8394 4288
31.8984 3752
32.2864 3216
32.3454 2680
32.4044 2144
32.7944 1608
32.7944 2144
32.8607 1608
32.8607 2144
33.071 0
33.071 536
33.1214 0
33.1214 536
33.1214 1072
34.0853 0
34.0853 536
34.0853 1072
35.2403 536
35.2403 1072
35.4863 536
35.4863 1072
35.4863 1608
36.2978 1072
36.2978 1608
36.6043 1072
36.6043 1608
36.8693 1072
36.8693 1608
36.8693 2144
37.3496 1608
37.3496 2144
37.6663 1608
37.6663 2144
37.9026 1072
37.9026 1608
37.9026 2144
38.4457 1608
38.4457 2144
38.8223 1608
38.8223 2144
38.8223 2680
38.9596 1608
38.9596 2144
38.9596 2680
39.6016 2144
39.6016 2680
39.7996 1608
39.7996 2144
39.7996 2680
40.3183 2144
40.3183 2680
40.6266 1608
40.6266 2144
40.6266 2680
40.6266 3216
40.9586 2144
40.9586 2680
40.9586 3216
41.4856 2144
41.4856 2680
41.4856 3216
41.8016 2144
41.8016 2680
41.8016 3216
42.2486 2144
42.2486 2680
42.2486 3216
42.4466 2144
42.4466 2680
42.4466 3216
42.8186 2144
42.8186 2680
42.8186 3216
42.8186 3752
43.2656 2680
43.2656 3216
43.2656 3752
43.7253 3216
43.7253 3752
43.8623 2680
43.8623 3216
43.8623 3752
44.1213 3216
44.1213 3752
44.2556 2680
44.2556 3216
44.2556 3752
44.7203 3216
44.7203 3752
44.9373 3216
44.9373 3752
45.0906 2680
45.0906 3216
45.0906 3752
45.0906 4288
45.4223 3216
45.4223 3752
45.4223 4288
45.6813 3752
45.6813 4288
45.9346 3216
45.9346 3752
45.9346 4288
46.1983 3216
46.1983 3752
46.1983 4288
46.4573 3752
46.4573 4288
46.5273 3216
46.5273 3752
46.5273 4288
46.8643 3216
46.8643 3752
46.8643 4288
47.1823 3752
47.1823 4288
47.1823 4824
47.3166 3752
47.3166 4288
47.3166 4824
47.5813 3752
47.5813 4288
47.5813 4824
47.8446 4288
47.8446 4824
48.0283 3752
48.0283 4288
48.0283 4824
48.3573 3752
48.3573 4288
48.3573 4824
48.6163 4288
48.6163 4824
48.8123 3752
48.8123 4288
48.8123 4824
49.1413 3752
49.1413 4288
49.1413 4824
49.4003 4288
49.4003 4824
49.5346 3752
49.5346 4288
49.5346 4824
49.5346 5360
49.8583 4288
49.8583 4824
49.8583 5360
50.1206 4824
50.1206 5360
50.3133 4288
50.3133 4824
50.3133 5360
50.7013 4288
50.7013 4824
50.7013 5360
50.9603 4824
50.9603 5360
51.0893 4288
51.0893 4824
51.0893 5360
51.3516 4824
51.3516 5360
51.5363 4288
51.5363 4824
51.5363 5360
51.9913 4288
51.9913 4824
51.9913 5360
52.2503 4824
52.2503 5360
52.4404 4824
52.4404 5360
52.5072 4824
52.5072 5360
52.7714 4288
52.7714 4824
52.8304 4288
52.8894 3216
53.2184 2680
53.2774 2144
53.7244 1608
53.7244 2144
53.7834 1608
53.7834 2144
53.8424 1608
53.8424 2144
54.1184 1608
54.1184 2144
54.6356 1608
54.6356 2144
54.9566 1072
54.9566 1608
54.9566 2144
55.4803 1608
55.4803 2144
55.7407 1608
55.7407 2144
55.9816 1072
55.9816 1608
55.9816 2144
56.5293 1608
56.5293 2144
56.5293 2680
56.8933 2144
56.8933 2680
57.0386 1608
57.0386 2144
57.0386 2680
57.5496 1608
57.5496 2144
57.5496 2680
58.0493 2144
58.0493 2680
58.2536 1608
58.2536 2144
58.2536 2680
58.2536 3216
58.6416 2144
58.6416 2680
58.6416 3216
59.2563 2680
59.2563 3216
59.4846 2144
59.4846 2680
59.4846 3216
59.8673 2144
59.8673 2680
59.8673 3216
60.1263 2680
60.1263 3216
60.4373 2144
60.4373 2680
60.4373 3216
60.6996 2680
60.6996 3216
60.6996 3752
61.0173 3216
61.0173 3752
61.2216 2680
61.2216 3216
61.2216 3752
61.6096 2680
61.6096 3216
61.6096 3752
61.7836 2680
61.7836 3216
61.7836 3752
62.3103 3216
62.3103 3752
62.5036 2680
62.5036 3216
62.5036 3752
62.6776 2680
62.6776 3216
62.6776 3752
62.6776 4288
63.0946 3752
63.0946 4288
63.2123 3216
63.2123 3752
63.2123 4288
63.4933 3216
63.4933 3752
63.4933 4288
63.8813 3216
63.8813 3752
63.8813 4288
64.1436 3752
64.1436 4288
64.3336 3216
64.3336 3752
64.3336 4288
64.6063 3216
64.6063 3752
64.6063 4288
64.8653 3752
64.8653 4288
64.9943 3216
64.9943 3752
64.9943 4288
64.9943 4824
65.3233 3752
65.3233 4288
65.3233 4824
65.5823 4288
65.5823 4824
65.6576 3752
65.6576 4288
65.6576 4824
65.9303 3752
65.9303 4288
65.9303 4824
66.1973 4288
66.1973 4824
66.3183 3752
66.3183 4288
66.3183 4824
66.7063 3752
66.7063 4288
66.7063 4824
66.9653 4288
66.9653 4824
67.0406 3752
67.0406 4288
67.0406 4824
67.0406 5360
67.3723 4288
67.3723 4824
67.3723 5360
67.6346 4824
67.6346 5360
67.8246 4288
67.8246 4824
67.8246 5360
68.0893 4288
68.0893 4824
68.0893 5360
68.3548 4824
68.3548 5360
68.5363 4288
68.5363 4824
68.5363 5360
68.8084 4824
68.8084 5360
68.8674 4824
68.8674 5360
68.9264 4288
68.9264 4824
69.2634 4288
69.3224 3752
69.5924 3216
69.6514 2680
69.7104 2144
69.9804 1608
69.9804 2144
70.0394 1608
70.0394 2144
70.0984 1608
70.0984 2144
70.3208 0
70.3208 536
70.3663 0
70.3663 536
70.3663 1072
71.0323 0
71.0323 536
71.0323 1072
71.2913 536
71.2913 1072
72.2686 0
72.2686 536
72.2686 1072
72.2686 1608
73.3433 536
73.3433 1072
73.3433 1608
73.6023 1072
73.6023 1608
74.4026 536
74.4026 1072
74.4026 1608
74.4026 2144
74.737 1608
74.737 2144
75.4003 1072
75.4003 1608
75.4003 2144
75.7213 1072
75.7213 1608
75.7213 2144
76.3636 1072
76.3636 1608
76.3636 2144
76.8713 1608
76.8713 2144
76.8713 2680
77.2113 2144
77.2113 2680
77.4143 2144
77.4143 2680
77.6153 2144
77.6153 2680
77.9156 1608
77.9156 2144
77.9156 2680
78.3753 2144
78.3753 2680
78.3753 3216
78.6756 2144
78.6756 2680
78.6756 3216
79.0236 2144
79.0236 2680
79.0236 3216
79.4866 2144
79.4866 2680
79.4866 3216
79.9176 2144
79.9176 2680
79.9176 3216
80.3136 2144
80.3136 2680
80.3136 3216
80.5036 2144
80.5036 2680
80.5036 3216
80.5036 3752
80.9426 2680
80.9426 3216
80.9426 3752
81.3306 2680
81.3306 3216
81.3306 3752
81.8493 3216
81.8493 3752
82.0453 2680
82.0453 3216
82.0453 3752
82.3043 3216
82.3043 3752
82.5566 2680
82.5566 3216
82.5566 3752
82.8856 2680
82.8856 3216
82.8856 3752
83.0676 2680
83.0676 3216
83.0676 3752
83.0676 4288
83.4683 3752
83.4683 4288
83.5973 3216
83.5973 3752
83.5973 4288
83.9536 3216
83.9536 3752
83.9536 4288
84.3703 3752
84.3703 4288
84.4993 3216
84.4993 3752
84.4993 4288
84.7583 3752
84.7583 4288
84.8926 3216
84.8926 3752
84.8926 4288
85.2163 3216
85.2163 3752
85.2163 4288
85.2163 4824
85.5743 4288
85.5743 4824
85.6713 3752
85.6713 4288
85.6713 4824
86.0593 3752
86.0593 4288
86.0593 4824
86.3183 4288
86.3183 4824
86.4473 3752
86.4473 4288
86.4473 4824
86.8353 3752
86.8353 4288
86.8353 4824
87.0976 4288
87.0976 4824
87.2903 3752
87.2903 4288
87.2903 4824
87.6783 3752
87.6783 4288
87.6783 4824
87.9406 4288
87.9406 4824
87.9406 5360
88.1253 4288
88.1253 4824
88.1253 5360
88.6313 4288
88.6313 4824
88.6313 5360
88.8946 4824
88.8946 5360
89.0214 4824
89.0214 5360
89.085 4824
89.085 5360
89.4194 4288
89.4194 4824
89.4784 4288
89.5374 3216
89.8074 2680
89.8664 2144
89.9254 1608
89.9254 2144
90.3134 1608
90.3134 2144
90.3724 1608
90.3724 2144
90.6994 1608
90.6994 2144
90.9303 1608
90.9303 2144
91.3346 1072
91.3346 1608
91.3346 2144
92.1053 1072
92.1053 1608
92.1053 2144
92.5523 1072
92.5523 1608
92.5523 2144
93.0846 1072
93.0846 1608
93.0846 2144
93.5316 1072
93.5316 1608
93.5316 2144
93.5316 2680
94.1353 2144
94.1353 2680
94.3873 2144
94.3873 2680
94.5886 1608
94.5886 2144
94.5886 2680
95.0916 1608
95.0916 2144
95.0916 2680
95.4823 1608
95.4823 2144
95.4823 2680
95.4823 3216
95.7413 2680
95.7413 3216
96.1453 2680
96.1453 3216
96.3386 2144
96.3386 2680
96.3386 3216
96.6976 2144
96.6976 2680
96.6976 3216
97.2006 2144
97.2006 2680
97.2006 3216
97.5326 2144
97.5326 2680
97.5326 3216
97.9796 2144
97.9796 2680
97.9796 3216
97.9796 3752
98.1696 2680
98.1696 3216
98.1696 3752
98.6853 3216
98.6853 3752
98.9403 2680
98.9403 3216
98.9403 3752
99.0636 2680
99.0636 3216
99.0636 3752
99.3876 2680
99.3876 3216
99.3876 3752
99.7373 3216
99.7373 3752
99.9576 2680
99.9576 3216
99.9576 3752
99.9576 4288
